project2/src/output.vcd
$date
	Fri Dec 29 20:03:08 2017
$end
$version
	Icarus Verilog
$end
$timescale
	1s
$end
$scope module TestBench $end
$var wire 256 ! mem_cpu_data [255:0] $end
$var wire 1 " mem_cpu_ack $end
$var wire 1 # cpu_mem_write $end
$var wire 1 $ cpu_mem_enable $end
$var wire 256 % cpu_mem_data [255:0] $end
$var wire 32 & cpu_mem_addr [31:0] $end
$var reg 1 ' Clk $end
$var reg 1 ( Reset $end
$var reg 1 ) Start $end
$var reg 27 * address [26:0] $end
$var reg 1 + flag $end
$var reg 5 , index [4:0] $end
$var reg 24 - tag [23:0] $end
$var integer 32 . counter [31:0] $end
$var integer 32 / i [31:0] $end
$var integer 32 0 outfile [31:0] $end
$var integer 32 1 outfile2 [31:0] $end
$scope module CPU $end
$var wire 1 ' clk_i $end
$var wire 1 ( rst_i $end
$var wire 1 ) start_i $end
$var wire 1 # mem_write_o $end
$var wire 1 $ mem_enable_o $end
$var wire 256 2 mem_data_o [255:0] $end
$var wire 256 3 mem_data_i [255:0] $end
$var wire 32 4 mem_addr_o [31:0] $end
$var wire 1 " mem_ack_i $end
$scope module ALU $end
$var wire 32 5 data1_i [31:0] $end
$var wire 32 6 data0_i [31:0] $end
$var wire 3 7 aluctrl_i [2:0] $end
$var reg 32 8 data_o [31:0] $end
$upscope $end
$scope module ALUControl $end
$var wire 6 9 funct_i [5:0] $end
$var wire 2 : aluop_i [1:0] $end
$var reg 3 ; aluctrl_o [2:0] $end
$upscope $end
$scope module AddBranch $end
$var wire 32 < data_o [31:0] $end
$var wire 32 = data1_i [31:0] $end
$var wire 32 > data0_i [31:0] $end
$upscope $end
$scope module AddPC $end
$var wire 32 ? data1_i [31:0] $end
$var wire 32 @ data_o [31:0] $end
$var wire 32 A data0_i [31:0] $end
$upscope $end
$scope module Control $end
$var wire 1 B regwrite_o $end
$var wire 1 C regdst_o $end
$var wire 6 D op_i [5:0] $end
$var wire 1 E memwrite_o $end
$var wire 1 F memtoreg_o $end
$var wire 1 G memread_o $end
$var wire 1 H jump_o $end
$var wire 1 I extop_o $end
$var wire 1 J branch_o $end
$var wire 1 K alusrc_o $end
$var wire 2 L aluop_o [1:0] $end
$upscope $end
$scope module EX_MEM $end
$var wire 1 ' clk_i $end
$var wire 32 M result_i [31:0] $end
$var wire 1 N stall_i $end
$var wire 1 O regwrite_i $end
$var wire 1 P memwrite_i $end
$var wire 1 Q memtoreg_i $end
$var wire 1 R memread_i $end
$var wire 32 S data_i [31:0] $end
$var wire 5 T RD_i [4:0] $end
$var reg 5 U RD_o [4:0] $end
$var reg 32 V data_o [31:0] $end
$var reg 1 W memread_o $end
$var reg 1 X memtoreg_o $end
$var reg 1 Y memwrite_o $end
$var reg 1 Z regwrite_o $end
$var reg 32 [ result_o [31:0] $end
$upscope $end
$scope module Forward $end
$var wire 5 \ EX_MEM_RD_i [4:0] $end
$var wire 1 Z EX_MEM_regwrite_i $end
$var wire 1 ] MEM_WB_regwrite_i $end
$var wire 5 ^ MEM_WB_RD_i [4:0] $end
$var wire 5 _ ID_EX_RT_i [4:0] $end
$var wire 5 ` ID_EX_RS_i [4:0] $end
$var reg 2 a forward_RS_o [1:0] $end
$var reg 2 b forward_RT_o [1:0] $end
$upscope $end
$scope module ForwardRS $end
$var wire 32 c data2_i [31:0] $end
$var wire 2 d select_i [1:0] $end
$var wire 32 e data_o [31:0] $end
$var wire 32 f data1_i [31:0] $end
$var wire 32 g data0_i [31:0] $end
$upscope $end
$scope module ForwardRT $end
$var wire 32 h data2_i [31:0] $end
$var wire 2 i select_i [1:0] $end
$var wire 32 j data_o [31:0] $end
$var wire 32 k data1_i [31:0] $end
$var wire 32 l data0_i [31:0] $end
$upscope $end
$scope module HazardDetection $end
$var wire 5 m IF_ID_RT_i [4:0] $end
$var wire 5 n IF_ID_RS_i [4:0] $end
$var wire 1 R ID_EX_memread_i $end
$var wire 5 o ID_EX_RT_i [4:0] $end
$var reg 1 p ID_EX_nop_o $end
$var reg 1 q IF_ID_write_o $end
$var reg 1 r pc_write_o $end
$upscope $end
$scope module ID_EX $end
$var wire 1 ' clk_i $end
$var wire 1 N stall_i $end
$var wire 32 s signextend_i [31:0] $end
$var wire 1 t regwrite_i $end
$var wire 1 u regdst_i $end
$var wire 1 v memwrite_i $end
$var wire 1 w memtoreg_i $end
$var wire 1 x memread_i $end
$var wire 1 y alusrc_i $end
$var wire 2 z aluop_i [1:0] $end
$var wire 5 { RTaddr_i [4:0] $end
$var wire 32 | RT_i [31:0] $end
$var wire 5 } RSaddr_i [4:0] $end
$var wire 32 ~ RS_i [31:0] $end
$var wire 5 !" RDaddr_i [4:0] $end
$var reg 5 "" RDaddr_o [4:0] $end
$var reg 32 #" RS_o [31:0] $end
$var reg 5 $" RSaddr_o [4:0] $end
$var reg 32 %" RT_o [31:0] $end
$var reg 5 &" RTaddr_o [4:0] $end
$var reg 2 '" aluop_o [1:0] $end
$var reg 1 (" alusrc_o $end
$var reg 1 R memread_o $end
$var reg 1 Q memtoreg_o $end
$var reg 1 P memwrite_o $end
$var reg 1 )" regdst_o $end
$var reg 1 O regwrite_o $end
$var reg 32 *" signextend_o [31:0] $end
$upscope $end
$scope module IF_ID $end
$var wire 1 ' clk_i $end
$var wire 1 +" flush_i $end
$var wire 1 ," hazard_i $end
$var wire 32 -" pc_i [31:0] $end
$var wire 1 N stall_i $end
$var wire 32 ." instr_i [31:0] $end
$var reg 32 /" instr_o [31:0] $end
$var reg 32 0" pc_o [31:0] $end
$upscope $end
$scope module InstructionMemory $end
$var wire 32 1" instr_o [31:0] $end
$var wire 32 2" addr_i [31:0] $end
$upscope $end
$scope module MEM_WB $end
$var wire 5 3" RD_i [4:0] $end
$var wire 1 ' clk_i $end
$var wire 1 X memtoreg_i $end
$var wire 1 Z regwrite_i $end
$var wire 32 4" result_i [31:0] $end
$var wire 1 N stall_i $end
$var wire 32 5" data_i [31:0] $end
$var reg 5 6" RD_o [4:0] $end
$var reg 32 7" data_o [31:0] $end
$var reg 1 8" memtoreg_o $end
$var reg 1 ] regwrite_o $end
$var reg 32 9" result_o [31:0] $end
$upscope $end
$scope module MUX8 $end
$var wire 1 p ID_EX_nop_i $end
$var wire 8 :" control_i [7:0] $end
$var wire 8 ;" data_o [7:0] $end
$upscope $end
$scope module MUXALUSrc $end
$var wire 32 <" data0_i [31:0] $end
$var wire 32 =" data1_i [31:0] $end
$var wire 1 (" select_i $end
$var wire 32 >" data_o [31:0] $end
$upscope $end
$scope module MUXBranch $end
$var wire 32 ?" data0_i [31:0] $end
$var wire 32 @" data1_i [31:0] $end
$var wire 1 A" select_i $end
$var wire 32 B" data_o [31:0] $end
$upscope $end
$scope module MUXJump $end
$var wire 32 C" data0_i [31:0] $end
$var wire 32 D" data1_i [31:0] $end
$var wire 1 H select_i $end
$var wire 32 E" data_o [31:0] $end
$upscope $end
$scope module MUXRegDst $end
$var wire 5 F" data0_i [4:0] $end
$var wire 5 G" data1_i [4:0] $end
$var wire 1 )" select_i $end
$var wire 5 H" data_o [4:0] $end
$upscope $end
$scope module MUXWriteReg $end
$var wire 32 I" data0_i [31:0] $end
$var wire 32 J" data1_i [31:0] $end
$var wire 1 8" select_i $end
$var wire 32 K" data_o [31:0] $end
$upscope $end
$scope module PC $end
$var wire 1 ' clk_i $end
$var wire 32 L" pc_i [31:0] $end
$var wire 1 r pc_write_i $end
$var wire 1 ( rst_i $end
$var wire 1 ) start_i $end
$var wire 1 N stall_i $end
$var reg 32 M" pc_o [31:0] $end
$upscope $end
$scope module RegisterEq $end
$var wire 1 N" data_o $end
$var wire 32 O" data1_i [31:0] $end
$var wire 32 P" data0_i [31:0] $end
$upscope $end
$scope module Registers $end
$var wire 5 Q" RDaddr_i [4:0] $end
$var wire 32 R" RDdata_i [31:0] $end
$var wire 5 S" RSaddr_i [4:0] $end
$var wire 5 T" RTaddr_i [4:0] $end
$var wire 1 ' clk_i $end
$var wire 1 ] regwrite_i $end
$var wire 32 U" RTdata_o [31:0] $end
$var wire 32 V" RSdata_o [31:0] $end
$upscope $end
$scope module Shift2 $end
$var wire 32 W" data_o [31:0] $end
$var wire 32 X" data_i [31:0] $end
$upscope $end
$scope module SignExtend $end
$var wire 16 Y" data_i [15:0] $end
$var wire 1 I extop_i $end
$var wire 32 Z" data_o [31:0] $end
$upscope $end
$scope module dcache $end
$var wire 1 [" cache_dirty $end
$var wire 1 \" cache_sram_enable $end
$var wire 5 ]" cache_sram_index [4:0] $end
$var wire 1 ^" cache_sram_write $end
$var wire 1 ' clk_i $end
$var wire 256 _" mem_data_o [255:0] $end
$var wire 1 $ mem_enable_o $end
$var wire 1 # mem_write_o $end
$var wire 1 W p1_MemRead_i $end
$var wire 1 Y p1_MemWrite_i $end
$var wire 32 `" p1_addr_i [31:0] $end
$var wire 32 a" p1_data_i [31:0] $end
$var wire 32 b" p1_data_o [31:0] $end
$var wire 1 c" p1_req $end
$var wire 1 N p1_stall_o $end
$var wire 1 ( rst_i $end
$var wire 1 d" write_hit $end
$var wire 1 e" sram_valid $end
$var wire 22 f" sram_tag [21:0] $end
$var wire 1 g" sram_dirty $end
$var wire 24 h" sram_cache_tag [23:0] $end
$var wire 256 i" sram_cache_data [255:0] $end
$var wire 256 j" r_hit_data [255:0] $end
$var wire 22 k" p1_tag [21:0] $end
$var wire 5 l" p1_offset [4:0] $end
$var wire 5 m" p1_index [4:0] $end
$var wire 256 n" mem_data_i [255:0] $end
$var wire 32 o" mem_addr_o [31:0] $end
$var wire 1 " mem_ack_i $end
$var wire 1 p" hit $end
$var wire 24 q" cache_sram_tag [23:0] $end
$var wire 256 r" cache_sram_data [255:0] $end
$var reg 1 s" cache_we $end
$var reg 1 t" mem_enable $end
$var reg 1 u" mem_write $end
$var reg 32 v" p1_data [31:0] $end
$var reg 3 w" state [2:0] $end
$var reg 256 x" w_hit_data [255:0] $end
$var reg 1 y" write_back $end
$scope module dcache_data_sram $end
$var wire 5 z" addr_i [4:0] $end
$var wire 1 ' clk_i $end
$var wire 256 {" data_i [255:0] $end
$var wire 1 \" enable_i $end
$var wire 1 ^" write_i $end
$var wire 256 |" data_o [255:0] $end
$upscope $end
$scope module dcache_tag_sram $end
$var wire 5 }" addr_i [4:0] $end
$var wire 1 ' clk_i $end
$var wire 24 ~" data_i [23:0] $end
$var wire 1 \" enable_i $end
$var wire 1 ^" write_i $end
$var wire 24 !# data_o [23:0] $end
$upscope $end
$upscope $end
$upscope $end
$scope module Data_Memory $end
$var wire 1 "# ack $end
$var wire 1 " ack_o $end
$var wire 32 ## addr_i [31:0] $end
$var wire 1 ' clk_i $end
$var wire 256 $# data_i [255:0] $end
$var wire 256 %# data_o [255:0] $end
$var wire 1 $ enable_i $end
$var wire 1 ( rst_i $end
$var wire 1 # write_i $end
$var wire 27 &# addr [26:0] $end
$var reg 4 '# count [3:0] $end
$var reg 256 (# data [255:0] $end
$var reg 2 )# state [1:0] $end
$var reg 1 *# write_reg $end
$upscope $end
$upscope $end
$enddefinitions $end
#0
$dumpvars
x*#
b0 )#
bx (#
bx '#
bx &#
bx %#
b0 $#
bx00000 ##
0"#
b0 !#
b10xxxxxxxxxxxxxxxxxxxxxx ~"
bx }"
b0 |"
bx {"
bx z"
0y"
bx x"
b0 w"
bx v"
0u"
0t"
0s"
bx r"
b10xxxxxxxxxxxxxxxxxxxxxx q"
0p"
bx00000 o"
bx n"
bx m"
bx l"
bx k"
bx j"
b0 i"
b0 h"
0g"
b0 f"
0e"
0d"
0c"
bx b"
bx a"
bx `"
b0 _"
0^"
bx ]"
0\"
0["
b0 Z"
b0 Y"
b0 X"
b0 W"
b0 V"
b0 U"
b0 T"
b0 S"
b0 R"
b0 Q"
b0 P"
b0 O"
1N"
b0 M"
b100 L"
b0 K"
b0 J"
b0 I"
bx H"
bx G"
bx F"
b100 E"
b0 D"
b100 C"
b100 B"
0A"
b0 @"
b100 ?"
bx >"
bx ="
bx <"
b10010011 ;"
b10010011 :"
b0 9"
08"
b0 7"
b0 6"
bx 5"
bx 4"
bx 3"
b0 2"
b100000000010000000000000000000 1"
b0 0"
b0 /"
b100000000010000000000000000000 ."
b100 -"
0,"
0+"
bx *"
x)"
x("
bx '"
bx &"
bx %"
bx $"
bx #"
bx ""
b0 !"
b0 ~
b0 }
b0 |
b0 {
b11 z
0y
0x
0w
0v
1u
1t
b0 s
1r
1q
0p
bx o
b0 n
b0 m
bx l
b0 k
bx j
b0 i
bx h
bx g
b0 f
bx e
b0 d
bx c
b0 b
b0 a
bx `
bx _
b0 ^
0]
bx \
bx [
0Z
0Y
xX
0W
bx V
bx U
bx T
bx S
0R
xQ
0P
0O
0N
bx M
b11 L
0K
0J
xI
0H
0G
0F
0E
b0 D
1C
1B
b0 A
b100 @
b100 ?
b0 >
b0 =
b0 <
bx ;
bx :
bx 9
bx 8
bx 7
bx 6
bx 5
bx00000 4
bx 3
b0 2
b101 1
b11 0
b100000 /
b1 .
bx -
bx ,
x+
bx *
0)
0(
0'
bx00000 &
b0 %
0$
0#
0"
bx !
$end
#12
1)
1(
#25
0u
1y
b1 z
b1010001 ;"
0C
1K
0I
b1010001 :"
b1 L
b0 5
b0 >"
b1000 E"
b1000 L"
b1000 D
b1000 T"
b1000 m
b1000000000000000000000 D"
b1000 {
b0 T
b0 H"
b0 9
b0 S
b0 j
b0 <"
b0 6
b0 e
bx f
bx k
bx K"
bx R"
b10101100000010000000000000000000 ."
b10101100000010000000000000000000 1"
b1000 B"
b1000 C"
b100000000010000000000000000000 /"
b100 <
b100 @"
b100 >
b100 0"
b0 ""
b0 G"
b0 _
b0 o
b0 &"
b0 F"
b0 `
b0 $"
b0 *"
b0 ="
b0 l
b0 %"
b0 g
b0 #"
b11 :
b11 '"
1O
0Q
0("
1)"
bx 9"
bx I"
bx 7"
bx J"
bx ^
bx 6"
bx Q"
x8"
b0 '#
0*#
b1000 @
b1000 -"
b1000 ?"
b100 A
b100 2"
b100 M"
b10 .
0+
1'
#50
0'
#75
xu
xw
0t
1v
bx1x00101 ;"
b0 8
b0 M
b1000 T
b1000 H"
xC
xF
0B
bx1x00101 :"
1E
1I
b1100 E"
b1100 L"
b10 7
b10 ;
b101011 D
b100000000010000001000100010001 ."
b100000000010000001000100010001 1"
b1100 B"
b1100 C"
b0 U
b0 \
b0 3"
b0 V
b0 a"
1Z
0X
b1000 _
b1000 o
b1000 &"
b1000 F"
b1 :
b1 '"
1("
0)"
b10101100000010000000000000000000 /"
b1000 <
b1000 @"
b1000 >
b1000 0"
b1100 @
b1100 -"
b1100 ?"
b1000 A
b1000 2"
b1000 M"
b11 .
1'
#100
0'
#125
0u
0w
1t
0v
b0 &#
b1010001 ;"
0C
0F
1B
b1010001 :"
0E
0I
b100010001000100 =
b100010001000100 W"
b0x000 T
b0x000 H"
bx00000000000000000000000000000000 x"
b0 5"
b0 b"
b0 v"
b0 &
b0 4
b0 o"
b0 ##
b10000 E"
b10000 L"
b1000 D
b1000100010001 s
b1000100010001 X"
b1000100010001 Z"
b1000100010001 Y"
b1000000100010001000100 D"
b10 !"
b0 l"
b0 ]"
b0 z"
b0 }"
b0 m"
b100000000000000000000000 q"
b100000000000000000000000 ~"
b0 k"
b10 b
b10 i
b10101100000010000000000000000100 ."
b10101100000010000000000000000100 1"
b10000 B"
b10000 C"
b100000000010000001000100010001 /"
b100010001010000 <
b100010001010000 @"
b1100 >
b1100 0"
1P
0O
xQ
x)"
b1000 U
b1000 \
b1000 3"
b0 [
b0 c
b0 h
b0 4"
b0 `"
b0 ^
b0 6"
b0 Q"
1]
08"
b10000 @
b10000 -"
b10000 ?"
b1100 A
b1100 2"
b1100 M"
b100 .
1'
#150
0'
#175
xu
xw
0t
1v
b1000100010001 8
b1000100010001 M
bx1x00101 ;"
1N
b1000100010001 5
b1000100010001 >"
xC
xF
0B
bx1x00101 :"
1E
1I
b10000 =
b10000 W"
b10100 E"
b10100 L"
b0 f
b0 k
b0 K"
b0 R"
1\"
1c"
b0 b
b0 i
b1000 T
b1000 H"
b10001 9
b101011 D
b100 s
b100 X"
b100 Z"
b100 Y"
b1000000000000000010000 D"
b0 !"
b100000000010000010001000100010 ."
b100000000010000010001000100010 1"
b10100 B"
b10100 C"
b0 9"
b0 I"
b0 7"
b0 J"
b1000 ^
b1000 6"
b1000 Q"
b0x000 U
b0x000 \
b0x000 3"
1Y
0Z
xX
b10 ""
b10 G"
b1000100010001 *"
b1000100010001 ="
0P
1O
0Q
0)"
b10101100000010000000000000000100 /"
b100000 <
b100000 @"
b10000 >
b10000 0"
b10100 @
b10100 -"
b10100 ?"
b10000 A
b10000 2"
b10000 M"
b101 .
1'
#200
0'
#225
b100 w"
b110 .
1+
1'
#250
0'
#275
b1 w"
1$
1t"
b111 .
1'
#300
0'
#325
b1 )#
b1000 .
1'
#350
0'
#375
b1 '#
b1001 .
1'
#400
0'
#425
b10 '#
b1010 .
1'
#450
0'
#475
b11 '#
b1011 .
1'
#500
0'
#525
b100 '#
b1100 .
1'
#550
0'
#575
b101 '#
b1101 .
1'
#600
0'
#625
b110 '#
b1110 .
1'
#650
0'
#675
b111 '#
b1111 .
1'
#700
0'
#725
b1000 '#
b10000 .
1'
#750
0'
#775
1"
1"#
b1001 '#
b10001 .
1'
#800
0'
#825
0"
0"#
1^"
b1010 '#
b0 )#
b10 w"
1s"
0$
0t"
b0 x"
b101 j"
b101 r"
b101 {"
b101 !
b101 3
b101 n"
b101 %#
b101 (#
b10010 .
1'
#850
0'
#875
0N
b0 r"
b0 {"
b110000000000000000000000 q"
b110000000000000000000000 ~"
1["
1d"
1p"
1e"
b101 %
b101 2
b101 _"
b101 $#
b101 i"
b101 |"
b100000000000000000000000 h"
b100000000000000000000000 !#
1^"
b0 '#
b0 w"
0s"
b10011 .
1'
#900
0'
#925
b101 x"
0u
0w
1t
0v
b10001000 &#
b101 r"
b101 {"
b1000100010001 S
b1000100010001 j
b1000100010001 <"
b1010001 ;"
b100 8
b100 M
0p"
0e"
0C
0F
1B
b1010001 :"
0E
0I
b1000100010001000 =
b1000100010001000 W"
b100 5
b100 >"
b0x000 T
b0x000 H"
b1000100000000 &
b1000100000000 4
b1000100000000 o"
b1000100000000 ##
0^"
0g"
b101 j"
b11000 E"
b11000 L"
b1000 D
b10001000100010 s
b10001000100010 X"
b10001000100010 Z"
b10001000100010 Y"
b1000001000100010001000 D"
b100 !"
b100 9
b10001 l"
b1000 ]"
b1000 z"
b1000 }"
b1000 m"
b100 k"
0\"
0c"
b100000000000000000000100 q"
b100000000000000000000100 ~"
0["
0d"
b0 h"
b0 !#
b0 %
b0 2
b0 _"
b0 $#
b0 i"
b0 |"
b10 b
b10 i
b10101100000010000000000000001000 ."
b10101100000010000000000000001000 1"
b11000 B"
b11000 C"
b100000000010000010001000100010 /"
b1000100010011100 <
b1000100010011100 @"
b10100 >
b10100 0"
b0 ""
b0 G"
b100 *"
b100 ="
1P
0O
xQ
x)"
b1000 U
b1000 \
b1000 3"
b1000100010001 [
b1000100010001 c
b1000100010001 h
b1000100010001 4"
b1000100010001 `"
0Y
1Z
0X
b0x000 ^
b0x000 6"
b0x000 Q"
0]
x8"
b11000 @
b11000 -"
b11000 ?"
b10100 A
b10100 2"
b10100 M"
b10100 .
0+
1'
#950
0'
#975
1^"
b0 j"
b100010001000100000000000000000000000000000000 r"
b100010001000100000000000000000000000000000000 {"
1["
1d"
1p"
b0 &#
xu
xw
0t
1v
1g"
1e"
b10001000100010 8
b10001000100010 M
bx1x00101 ;"
0N"
b1000100010001 |
b1000100010001 O"
b1000100010001 U"
b0 &
b0 4
b0 o"
b0 ##
0N
b110000000000000000000000 h"
b110000000000000000000000 !#
b0 S
b0 j
b0 <"
b10001000100010 5
b10001000100010 >"
xC
xF
0B
bx1x00101 :"
1E
1I
b100000 =
b100000 W"
b11100 E"
b11100 L"
b1000100010001 f
b1000100010001 k
b1000100010001 K"
b1000100010001 R"
b100010001000100000000000000000000000000000000 x"
b100 l"
b0 ]"
b0 z"
b0 }"
b0 m"
b110000000000000000000000 q"
b110000000000000000000000 ~"
b0 k"
1\"
1c"
b0 b
b0 i
b1000 T
b1000 H"
b100010 9
b101011 D
b1000 s
b1000 X"
b1000 Z"
b1000 Y"
b1000000000000000100000 D"
b0 !"
b100000000010000011001100110011 ."
b100000000010000011001100110011 1"
b11100 B"
b11100 C"
b1000100010001 9"
b1000100010001 I"
b1000 ^
b1000 6"
b1000 Q"
1]
08"
b0x000 U
b0x000 \
b0x000 3"
b1000100010001 V
b1000100010001 a"
b100 [
b100 c
b100 h
b100 4"
b100 `"
1Y
0Z
xX
b100 ""
b100 G"
b10001000100010 *"
b10001000100010 ="
0P
1O
0Q
0)"
b10101100000010000000000000001000 /"
b111000 <
b111000 @"
b11000 >
b11000 0"
b11100 @
b11100 -"
b11100 ?"
b11000 A
b11000 2"
b11000 M"
b10101 .
1'
#1000
0'
#1025
0u
0w
1t
0v
b100010001 &#
b1010001 ;"
b1000 8
b1000 M
b10001000100010 S
b10001000100010 j
b10001000100010 <"
0p"
0g"
0e"
0C
0F
1B
b1010001 :"
0E
0I
b1100110011001100 =
b1100110011001100 W"
b1000 5
b1000 >"
b0x000 T
b0x000 H"
b101 r"
b101 {"
b10001000100000 &
b10001000100000 4
b10001000100000 o"
b10001000100000 ##
b0 h"
b0 !#
0^"
b101 j"
b100000 E"
b100000 L"
b1000 D
b11001100110011 s
b11001100110011 X"
b11001100110011 Z"
b11001100110011 Y"
b1000001100110011001100 D"
b110 !"
b1000 9
b101 x"
b10 l"
b10001 ]"
b10001 z"
b10001 }"
b10001 m"
b1000 k"
0\"
0c"
b100000000000000000001000 q"
b100000000000000000001000 ~"
0["
0d"
b0 %
b0 2
b0 _"
b0 $#
b0 i"
b0 |"
b0x00 f
b0x00 k
b0x00 K"
b0x00 R"
b10 b
b10 i
b10101100000010000000000000001100 ."
b10101100000010000000000000001100 1"
b100000 B"
b100000 C"
b100000000010000011001100110011 /"
b1100110011101000 <
b1100110011101000 @"
b11100 >
b11100 0"
b0 ""
b0 G"
b1000 *"
b1000 ="
b1000100010001 l
b1000100010001 %"
1P
0O
xQ
x)"
b1000 U
b1000 \
b1000 3"
b0 V
b0 a"
b10001000100010 [
b10001000100010 c
b10001000100010 h
b10001000100010 4"
b10001000100010 `"
0Y
1Z
0X
b100 9"
b100 I"
b0x000 ^
b0x000 6"
b0x000 Q"
0]
x8"
b100000 @
b100000 -"
b100000 ?"
b11100 A
b11100 2"
b11100 M"
b10110 .
1'
#1050
0'
#1075
1^"
b100010001000100000000000000000000000000000000 j"
b100010001000100000000000000000000100010001000100000000000000000000000000000000 r"
b100010001000100000000000000000000100010001000100000000000000000000000000000000 {"
1["
1d"
1p"
b0 &#
xu
xw
0t
1v
1g"
1e"
b11001100110011 8
b11001100110011 M
bx1x00101 ;"
b10001000100010 |
b10001000100010 O"
b10001000100010 U"
b0 &
b0 4
b0 o"
b0 ##
0N
b100010001000100000000000000000000000000000000 %
b100010001000100000000000000000000000000000000 2
b100010001000100000000000000000000000000000000 _"
b100010001000100000000000000000000000000000000 $#
b100010001000100000000000000000000000000000000 i"
b100010001000100000000000000000000000000000000 |"
b110000000000000000000000 h"
b110000000000000000000000 !#
b1000100010001 S
b1000100010001 j
b1000100010001 <"
b11001100110011 5
b11001100110011 >"
xC
xF
0B
bx1x00101 :"
1E
1I
b110000 =
b110000 W"
b100100 E"
b100100 L"
b10001000100010 f
b10001000100010 k
b10001000100010 K"
b10001000100010 R"
b100010001000100000000000000000000100010001000100000000000000000000000000000000 x"
b1000 l"
b0 ]"
b0 z"
b0 }"
b0 m"
b110000000000000000000000 q"
b110000000000000000000000 ~"
b0 k"
1\"
1c"
b0 b
b0 i
b1000 T
b1000 H"
b110011 9
b101011 D
b1100 s
b1100 X"
b1100 Z"
b1100 Y"
b1000000000000000110000 D"
b0 !"
b100000000010000100010001000100 ."
b100000000010000100010001000100 1"
b100100 B"
b100100 C"
b10001000100010 9"
b10001000100010 I"
b1000 ^
b1000 6"
b1000 Q"
1]
08"
b0x000 U
b0x000 \
b0x000 3"
b10001000100010 V
b10001000100010 a"
b1000 [
b1000 c
b1000 h
b1000 4"
b1000 `"
1Y
0Z
xX
b110 ""
b110 G"
b11001100110011 *"
b11001100110011 ="
0P
1O
0Q
0)"
b10101100000010000000000000001100 /"
b1010000 <
b1010000 @"
b100000 >
b100000 0"
b100100 @
b100100 -"
b100100 ?"
b100000 A
b100000 2"
b100000 M"
b10111 .
1'
#1100
0'
#1125
0u
0w
1t
0v
b110011001 &#
b1010001 ;"
b1100 8
b1100 M
b11001100110011 S
b11001100110011 j
b11001100110011 <"
0p"
0g"
0e"
0C
0F
1B
b1010001 :"
0E
0I
b10001000100010000 =
b10001000100010000 W"
b1100 5
b1100 >"
b0x000 T
b0x000 H"
b101 r"
b101 {"
b11001100100000 &
b11001100100000 4
b11001100100000 o"
b11001100100000 ##
b0 h"
b0 !#
0^"
b101 j"
b101000 E"
b101000 L"
b1000 D
b100010001000100 s
b100010001000100 X"
b100010001000100 Z"
b100010001000100 Y"
b1000010001000100010000 D"
b1000 !"
b1100 9
b101 x"
b10011 l"
b11001 ]"
b11001 z"
b11001 }"
b11001 m"
b1100 k"
0\"
0c"
b100000000000000000001100 q"
b100000000000000000001100 ~"
0["
0d"
b0 %
b0 2
b0 _"
b0 $#
b0 i"
b0 |"
b0x000 f
b0x000 k
b0x000 K"
b0x000 R"
b10 b
b10 i
b10101100000010000000000000010000 ."
b10101100000010000000000000010000 1"
b101000 B"
b101000 C"
b100000000010000100010001000100 /"
b10001000100110100 <
b10001000100110100 @"
b100100 >
b100100 0"
b0 ""
b0 G"
b1100 *"
b1100 ="
b10001000100010 l
b10001000100010 %"
1P
0O
xQ
x)"
b1000 U
b1000 \
b1000 3"
b1000100010001 V
b1000100010001 a"
b11001100110011 [
b11001100110011 c
b11001100110011 h
b11001100110011 4"
b11001100110011 `"
0Y
1Z
0X
b1000 9"
b1000 I"
b0x000 ^
b0x000 6"
b0x000 Q"
0]
x8"
b101000 @
b101000 -"
b101000 ?"
b100100 A
b100100 2"
b100100 M"
b11000 .
1'
#1150
0'
#1175
1^"
b100010001000100000000000000000000100010001000100000000000000000000000000000000 j"
b11001100110011000000000000000000100010001000100000000000000000000100010001000100000000000000000000000000000000 r"
b11001100110011000000000000000000100010001000100000000000000000000100010001000100000000000000000000000000000000 {"
1["
1d"
1p"
b0 &#
xu
xw
0t
1v
1g"
1e"
b100010001000100 8
b100010001000100 M
bx1x00101 ;"
b11001100110011 |
b11001100110011 O"
b11001100110011 U"
b0 &
b0 4
b0 o"
b0 ##
0N
b100010001000100000000000000000000100010001000100000000000000000000000000000000 %
b100010001000100000000000000000000100010001000100000000000000000000000000000000 2
b100010001000100000000000000000000100010001000100000000000000000000000000000000 _"
b100010001000100000000000000000000100010001000100000000000000000000000000000000 $#
b100010001000100000000000000000000100010001000100000000000000000000000000000000 i"
b100010001000100000000000000000000100010001000100000000000000000000000000000000 |"
b110000000000000000000000 h"
b110000000000000000000000 !#
b10001000100010 S
b10001000100010 j
b10001000100010 <"
b100010001000100 5
b100010001000100 >"
xC
xF
0B
bx1x00101 :"
1E
1I
b1000000 =
b1000000 W"
b101100 E"
b101100 L"
b11001100110011 f
b11001100110011 k
b11001100110011 K"
b11001100110011 R"
b11001100110011000000000000000000100010001000100000000000000000000100010001000100000000000000000000000000000000 x"
b1100 l"
b0 ]"
b0 z"
b0 }"
b0 m"
b110000000000000000000000 q"
b110000000000000000000000 ~"
b0 k"
1\"
1c"
b0 b
b0 i
b1000 T
b1000 H"
b100 9
b101011 D
b10000 s
b10000 X"
b10000 Z"
b10000 Y"
b1000000000000001000000 D"
b0 !"
b100000000010000101010101010101 ."
b100000000010000101010101010101 1"
b101100 B"
b101100 C"
b11001100110011 9"
b11001100110011 I"
b1000 ^
b1000 6"
b1000 Q"
1]
08"
b0x000 U
b0x000 \
b0x000 3"
b11001100110011 V
b11001100110011 a"
b1100 [
b1100 c
b1100 h
b1100 4"
b1100 `"
1Y
0Z
xX
b1000 ""
b1000 G"
b100010001000100 *"
b100010001000100 ="
0P
1O
0Q
0)"
b10101100000010000000000000010000 /"
b1101000 <
b1101000 @"
b101000 >
b101000 0"
b101100 @
b101100 -"
b101100 ?"
b101000 A
b101000 2"
b101000 M"
b11001 .
1'
#1200
0'
